…
2. Joining/Merging

I decided to use the inner_join() function, since the "murder_2015" dataset had 83 observations but the "murder_2016" dataset had 79. I wanted to compare data from the cities that the datasets have in common, so I thought it would be useful to use inner_join() in order to drop the extra 4 observations from the "murder_2016" dataset. Since the majority of the data is in common, I do not expect for there will be any major issues with dropping the 4 extra data points. Also the "change" variable from each dataset was re-named during the merging process, with "change.x" referring to the change in murder between 2014 and 2015, and "change.y" referring to the change in murder between 2015 and 2016. In addition, "murders_2015.x" refers to the 2015 values in comparison to the 2014 values, while "murders_2015.y" refers to the 2015 vaules corresponding to the appropriate preliminary 2016 values.

murder <- inner_join(murder_2015, murder_2016, by="city")

3. Wrangling

murder %>% filter(change.x >0 & change.y >0)

## # A tibble: 27 x 11
##    city  state.x murders_2014 murders_2015.x change.x state.y murders_2015.y
##    <chr> <chr>          <int>          <int>    <int> <chr>            <int>
##  1 Chic… Illino…          411            478       67 Illino…            378
##  2 Hous… Texas            242            303       61 Texas              191
##  3 Phil… Pennsy…          248            280       32 Pennsy…            209
##  4 Kans… Missou…           78            109       31 Missou…             77
##  5 Nash… Tennes…           41             72       31 Tennes…             47
##  6 Okla… Oklaho…           45             73       28 Oklaho…             28
##  7 Loui… Kentuc…           56             81       25 Kentuc…             52
##  8 Denv… Colora…           31             53       22 Colora…             32
##  9 Dall… Texas            116            136       20 Texas               95
## 10 Orla… Florida           15             32       17 Florida             19
## # … with 17 more rows, and 4 more variables: murders_2016 <int>, source <chr>,
## #   as_of <date>, change.y <int>

murder <- murder %>% mutate('total_2015' = murders_2014+murders_2015.x)
murder <- murder %>% mutate('total_2016' = murders_2015.y+murders_2016)
murder %>% arrange(desc(total_2015))

## # A tibble: 79 x 13
##    city  state.x murders_2014 murders_2015.x change.x state.y murders_2015.y
##    <chr> <chr>          <int>          <int>    <int> <chr>            <int>
##  1 Chic… Illino…          411            478       67 Illino…            378
##  2 New … New Yo…          333            352       19 New Yo…            266
##  3 Detr… Michig…          298            295       -3 Michig…            216
##  4 Balt… Maryla…          211            344      133 Maryla…            249
##  5 Hous… Texas            242            303       61 Texas              191
##  6 Los … Califo…          260            282       22 Califo…            209
##  7 Phil… Pennsy…          248            280       32 Pennsy…            209
##  8 St. … Missou…          159            188       29 Missou…            136
##  9 New … Louisi…          150            164       14 Louisi…            130
## 10 Indi… Indiana          136            148       12 Indiana            102
## # … with 69 more rows, and 6 more variables: murders_2016 <int>, source <chr>,
## #   as_of <date>, change.y <int>, total_2015 <int>, total_2016 <int>

murder %>% arrange(desc(total_2016))

## # A tibble: 79 x 13
##    city  state.x murders_2014 murders_2015.x change.x state.y murders_2015.y
##    <chr> <chr>          <int>          <int>    <int> <chr>            <int>
##  1 Chic… Illino…          411            478       67 Illino…            378
##  2 New … New Yo…          333            352       19 New Yo…            266
##  3 Balt… Maryla…          211            344      133 Maryla…            249
##  4 Detr… Michig…          298            295       -3 Michig…            216
##  5 Phil… Pennsy…          248            280       32 Pennsy…            209
##  6 Los … Califo…          260            282       22 Califo…            209
##  7 Hous… Texas            242            303       61 Texas              191
##  8 Memp… Tennes…          140            135       -5 Tennes…            114
##  9 St. … Missou…          159            188       29 Missou…            136
## 10 New … Louisi…          150            164       14 Louisi…            130
## # … with 69 more rows, and 6 more variables: murders_2016 <int>, source <chr>,
## #   as_of <date>, change.y <int>, total_2015 <int>, total_2016 <int>
…
## # A tibble: 1 x 2
##   `min(change.x)` `min(change.y)`
##             <int>           <int>
## 1             -19             -21

murder%>%summarize(max(change.x), max(change.y))

## # A tibble: 1 x 2
##   `max(change.x)` `max(change.y)`
##             <int>           <int>
## 1             133             158

murder%>% group_by(state) %>% summarize(mean_change=mean(change.x+change.y))

## # A tibble: 34 x 2
##    state      mean_change
##    <chr>            <dbl>
##  1 Alabama          -1   
##  2 Alaska           21   
##  3 Arizona           9.67
##  4 California        3.64
##  5 Colorado         15.7 
##  6 D.C.             43   
##  7 Florida          15   
##  8 Georgia          18   
##  9 Hawaii           -9   
## 10 Illinois        225   
## # … with 24 more rows

murder%>%group_by(state)%>%summarize(sum(change.x+change.y))

## # A tibble: 34 x 2
##    state      `sum(change.x + change.y)`
##    <chr>                           <int>
##  1 Alabama                            -1
##  2 Alaska                             21
##  3 Arizona                            29
##  4 California                         51
##  5 Colorado                           47
##  6 D.C.                               43
##  7 Florida                            60
##  8 Georgia                            18
##  9 Hawaii                             -9
## 10 Illinois                          225
## # … with 24 more rows
…
